{
	// Place your snippets for shellscript here. Each snippet is defined under a snippet name and has a prefix, body and 
	// description. The prefix is what is used to trigger the snippet and the body will be expanded and inserted. Possible variables are:
	// $1, $2 for tab stops, $0 for the final cursor position, and ${1:label}, ${2:another} for placeholders. Placeholders with the 
	// same ids are connected.
	// Example:
	// "Print to console": {
	// 	"prefix": "log",
	// 	"body": [
	// 		"console.log('$1');",
	// 		"$2"
	// 	],
	// 	"description": "Log output to console"
	// }
	"Bash shebang": {
		"prefix": "shebang for bash",
		"body": [
			"#! /usr/bin/env bash",
			"",
			"$1"
		],
		"description": "Write a Bash shebang."
	},
	"Script template basic": {
		"prefix": "script_template",
		"body": [
			"#! /usr/bin/env bash",
			"",
			"${1:functionName}() {",
			"    $0",
			"}",
			"",
			"# Display the source code of this file",
			"howItWorks() {",
			"    cat \\$0",
			"}",
			"",
			"# List all functions that do not begin with an underscore _",
			"_listAvailableFunctions() {",
			"    cat \\$0 | grep -E '^[a-z]+[a-zA-Z0-9]*\\(\\) \\{$' | sed 's#() {$##'",
			"}",
			"",
			"if [ \\$# -eq 0 ]; then",
			"    _listAvailableFunctions",
			"    exit",
			"fi",
			"",
			"\"$@\""
		]
	},
	"Bash Regex Match": {
		"prefix": "bash_regex_match",
		"body": "${BASH_REMATCH[1]}"
	},
	"Loop through files": {
		"prefix": "loop through files",
		"body": [
			"for file in ${1:./*}; do",
			"    ${2:echo \\$file}",
			"done"
		]
	},
	"Print using cat": {
		"prefix": "cat",
		"body": [
			"cat << 'EOF'",
			"$1",
			"EOF"
		],
		"description": "show cat template with heredoc"
	},
	"Template for alias how to do sth": {
		"prefix": "howTo",
		"body": [
			"please_$1_how_to_$2() {",
			"    cat << 'EOF'",
			"$3",
			"EOF",
			"}"
		],
		"description": "show alias template about how to do sth"
	}
}
